{
  "languageserver": {
    "lua-language-server": {
      "cwd": "/home/tms/lib/lua-language-server",
      "command": "/home/tms/lib/lua-language-server/bin/Linux/lua-language-server",
      "args": ["-E", "/home/tms/lib/lua-language-server/main.lua"],
      "filetypes": ["lua"]
    },
    "dart": {
      "command": "dart",
      "args": [
        "/home/tms/lib/dart/dart-sdk/bin/snapshots/analysis_server.dart.snapshot",
        "--lsp"
      ],
      "filetypes": ["dart"],
      "disableDynamicRegister": true,
      "trace.server": "verbose"
    }
  },
  "coc.preferences.useQuickfixForLocations": true,
  "Lua.diagnostics.globals": "vim"
}
